<svg width="92" height="93" viewBox="0 0 92 93" fill="none" xmlns="http://www.w3.org/2000/svg">
<line x1="2.58276" y1="87.1791" x2="89.4172" y2="87.1791"  stroke-width="2" stroke-linecap="round"/>
<mask id="path-2-inside-1" fill="white">
<rect x="26.0208" y="63.5879" width="9.99591" height="24.5912" rx="1"/>
</mask>
<rect x="26.0208" y="63.5879" width="9.99591" height="24.5912" rx="1"  stroke-width="4" stroke-linejoin="round" mask="url(#path-2-inside-1)"/>
<mask id="path-3-inside-2" fill="white">
<rect x="42.1481" y="49.564" width="9.99591" height="38.6151" rx="1"/>
</mask>
<rect x="42.1481" y="49.564" width="9.99591" height="38.6151" rx="1"  stroke-width="4" stroke-linejoin="round" mask="url(#path-3-inside-2)"/>
<mask id="path-4-inside-3" fill="white">
<rect x="58.2753" y="33.3981" width="9.99591" height="54.7809" rx="1"/>
</mask>
<rect x="58.2753" y="33.3981" width="9.99591" height="54.7809" rx="1"  stroke-width="4" stroke-linejoin="round" mask="url(#path-4-inside-3)"/>
<mask id="path-5-inside-4" fill="white">
<rect x="74.762" y="14.8336" width="9.99591" height="73.3454" rx="1"/>
</mask>
<rect x="74.762" y="14.8336" width="9.99591" height="73.3454" rx="1"  stroke-width="4" stroke-linejoin="round" mask="url(#path-5-inside-4)"/>
<path d="M26.1718 56.8666H35.1807V42.4982H51.0649V26.077H67.1918V7.81337H85.7284M85.7284 7.81337L82.2412 4.03851M85.7284 7.81337L82.2412 11.901"  stroke-width="2" stroke-linecap="round" stroke-linejoin="round"/>
</svg>
