<svg width="92" height="93" viewBox="0 0 92 93" fill="none" xmlns="http://www.w3.org/2000/svg">
<path d="M27.8978 52.9603L15.8672 79.4582C15.0996 81.2577 16.8549 83.1033 18.6905 82.4269L25.9751 79.743C27.1764 79.3005 28.5029 79.9574 28.879 81.181L31.2901 89.0259C31.9042 91.0238 34.6819 91.1562 35.4832 89.2258L45.596 64.8628C45.6602 64.7081 45.8747 64.6961 45.9558 64.8426L59.3098 88.9835C60.2664 90.6937 62.8051 90.4281 63.3871 88.5571L65.4879 81.8036C65.8763 80.5548 67.2507 79.9064 68.4615 80.4008L75.6415 83.3324C77.6065 84.1347 79.4759 81.9988 78.4203 80.1574L62.6404 52.6782M44.9332 5.36814L40.6928 4.12749C38.6838 3.53971 36.5213 4.26554 35.2738 5.94636L32.3008 9.95188C31.7376 10.7108 30.9707 11.2945 30.0892 11.6354L25.4991 13.4104C23.6437 14.1279 22.3901 15.877 22.3068 17.8645L22.0864 23.1254C22.0482 24.0366 21.7615 24.92 21.2573 25.6801L18.3465 30.0678C17.2468 31.7255 17.2344 33.8774 18.3149 35.5476L20.9881 39.6798C21.5014 40.4733 21.7793 41.3961 21.7896 42.3412L21.844 47.3291C21.8668 49.4222 23.1909 51.2795 25.1622 51.9835L29.323 53.4692C30.268 53.8067 31.0895 54.4206 31.6809 55.2312L34.3065 58.8302C35.5797 60.5753 37.8297 61.3055 39.885 60.6405L44.1236 59.2692C45.0783 58.9603 46.1038 58.9458 47.0668 59.2276L51.3072 60.4682C53.3162 61.056 55.4786 60.3302 56.7262 58.6494L59.6991 54.6438C60.2624 53.8849 61.0292 53.3012 61.9107 52.9603L66.5009 51.1853C68.3563 50.4678 69.6099 48.7187 69.6931 46.7312L69.9136 41.4704C69.9518 40.5591 70.2385 39.6757 70.7427 38.9157L73.6534 34.5279C74.7531 32.8702 74.7655 30.7183 73.685 29.0481L71.0119 24.9159C70.4985 24.1224 70.2206 23.1996 70.2103 22.2545L70.156 17.2666C70.1332 15.1735 68.809 13.3162 66.8377 12.6122L62.6769 11.1265C61.732 10.789 60.9104 10.1751 60.319 9.36453L57.6934 5.76552C56.4203 4.02036 54.1703 3.29019 52.115 3.95516L47.8763 5.32652C46.9217 5.63539 45.8962 5.64989 44.9332 5.36814ZM61.7196 32.2979C61.7196 41.1545 54.5399 48.3341 45.6833 48.3341C36.8267 48.3341 29.647 41.1545 29.647 32.2979C29.647 23.4413 36.8267 16.2616 45.6833 16.2616C54.5399 16.2616 61.7196 23.4413 61.7196 32.2979ZM43.736 29.5818H38.8718C38.4843 29.5818 38.3232 30.0776 38.6367 30.3054L42.5719 33.1645C42.7121 33.2663 42.7708 33.4469 42.7172 33.6117L41.2141 38.2378C41.0944 38.6063 41.5162 38.9128 41.8297 38.685L45.7649 35.8259C45.9051 35.7241 46.0949 35.7241 46.2351 35.8259L50.1703 38.685C50.4838 38.9128 50.9056 38.6063 50.7858 38.2378L49.2827 33.6117C49.2292 33.4469 49.2878 33.2663 49.428 33.1645L53.3632 30.3054C53.6767 30.0776 53.5156 29.5818 53.1281 29.5818H48.2639C48.0906 29.5818 47.9371 29.4702 47.8835 29.3054L46.3804 24.6793C46.2607 24.3107 45.7393 24.3107 45.6196 24.6793L44.1164 29.3054C44.0629 29.4702 43.9093 29.5818 43.736 29.5818Z" stroke-width="2"/>
</svg>
