<svg width="230" height="58" viewBox="0 0 230 58" fill="none" xmlns="http://www.w3.org/2000/svg">
<mask id="mask0" mask-type="alpha" maskUnits="userSpaceOnUse" x="-28" y="-28" width="285" height="114">
<path d="M-27.355 -27.8219H256.844V85.5641H-27.355V-27.8219Z" fill="white"/>
</mask>
<g mask="url(#mask0)">
<path d="M29.5414 0.526245C13.8491 0.526245 1.12631 13.2182 1.12631 28.8703C1.12631 44.5243 13.8491 57.2163 29.5414 57.2163C45.2418 57.2163 57.9646 44.5243 57.9646 28.8703C57.9646 13.2182 45.2418 0.526245 29.5414 0.526245ZM29.5414 55.0263C15.0582 55.0263 3.32196 43.3163 3.32196 28.8703C3.32196 14.4242 15.0582 2.71625 29.5414 2.71625C44.0287 2.71625 55.7669 14.4242 55.7669 28.8703C55.7669 43.3163 44.0287 55.0263 29.5414 55.0263Z" fill="#898989"/>
</g>
<mask id="mask1" mask-type="alpha" maskUnits="userSpaceOnUse" x="-28" y="-28" width="285" height="114">
<path d="M-27.355 -27.8219H256.844V85.5641H-27.355V-27.8219Z" fill="white"/>
</mask>
<g mask="url(#mask1)">
<path fill-rule="evenodd" clip-rule="evenodd" d="M29.5414 50.1302C30.524 50.1302 31.1195 49.4702 31.1556 48.5682C31.3701 48.9742 31.6488 49.2502 32.0679 49.3342C32.479 49.4162 32.9241 49.3582 33.3011 49.1922C33.6843 49.0373 33.9959 48.7457 34.1754 48.3742C34.3618 47.9942 34.2997 47.6002 34.1673 47.1442C34.6285 47.8082 35.4125 47.9802 36.1003 47.6602C37.0447 47.2202 37.3896 46.4202 37.0026 45.5062C35.8356 42.7422 34.6766 40.0282 33.5056 37.2642C33.3994 37.0142 33.3091 36.7582 33.1908 36.5082C33.0886 36.2882 33.0184 36.1262 32.9221 35.9902C32.8473 35.8902 32.7541 35.8054 32.6474 35.7402C34.4581 35.9402 35.3283 36.6522 35.8096 36.9682C35.9359 37.0522 35.9299 37.0642 36.4191 36.9122C36.5267 36.8804 36.6395 36.8701 36.751 36.8822C36.8625 36.8942 36.9706 36.9282 37.0688 36.9822C37.2874 37.1042 37.5119 37.2362 37.7024 37.3862C38.3541 37.8922 39.0158 38.3802 39.6294 38.9262C39.9161 39.1802 40.3292 39.6182 40.271 40.0082C40.2249 40.3762 39.3346 41.2182 39.0699 41.4682C38.4383 42.0662 39.3928 43.1862 40.6681 43.0822C40.3272 42.7262 40.247 42.4242 40.2891 42.1562C40.4174 42.1542 40.66 42.1782 40.8886 41.9742C41.1633 41.7262 41.039 40.9982 41.2957 40.7502C41.7428 40.3142 43.2086 40.2742 44.0869 40.2362C44.4538 40.2222 44.8408 40.1222 44.8127 39.5502C45.3702 39.5882 45.4865 40.0022 45.4865 40.3742C45.9637 40.1022 46.3768 38.8062 44.6062 38.5082C44.905 38.2402 45.4002 38.1382 45.707 38.4842C45.9938 38.0082 45.2679 37.0742 43.9565 37.6022C43.9585 37.5962 43.369 36.8242 41.5965 38.8042C41.3739 38.6362 41.1513 38.4722 40.9488 38.2842C40.265 37.6602 38.5366 35.9762 38.5366 35.9762C38.5366 35.0282 38.3942 33.1922 37.139 32.0922C36.6036 31.6242 36.0943 31.3762 34.9614 31.1702C34.9614 31.1702 35.5088 30.3142 35.595 29.9782C36.5815 30.9622 38.5646 31.2562 38.5646 29.5942C40.1808 31.2102 41.6827 30.3402 41.6827 29.3262C41.7328 29.8202 41.8591 30.3642 42.0276 30.8302C42.2301 31.3722 42.97 33.4542 44.8809 33.4542C44.925 34.1762 44.929 36.5582 47.2129 37.0882C47.3091 37.1142 47.4355 37.1462 47.4976 37.2222C48.418 38.3642 52.2519 39.5682 52.7211 39.2442C52.4223 39.0322 51.9531 38.7502 51.8789 37.4062C51.8308 36.5202 51.7325 31.9202 51.7325 25.4382C51.7325 23.1462 51.4859 15.7162 44.1209 14.6802C43.0041 14.5222 41.9052 14.6062 40.9528 15.3122C39.6575 16.2762 39.0198 17.9042 39.7818 19.7442C39.8058 19.8102 39.8259 19.8762 39.86 19.9342C40.1186 20.3722 40.0144 20.7522 39.6775 21.0862C39.0619 21.6942 38.3461 22.1062 37.4839 22.2062C36.9385 22.2682 36.4893 22.0302 36.1284 21.6582C35.3022 20.8102 34.7208 19.8142 34.5383 18.6402C34.1894 16.4042 34.7508 15.2962 34.7829 15.2262C35.3825 14.0282 36.6557 13.1482 38.1295 13.0222C38.8053 11.7622 40.7443 12.2602 40.7443 12.2602C41.2295 12.3662 41.3999 12.5062 41.5223 12.7442C41.5223 12.7442 42.3724 11.4502 41.5704 10.9322C40.7703 10.4142 38.9757 10.2002 38.9757 10.2002C38.9757 9.35823 37.5801 8.70223 35.0576 9.15223C32.0078 9.69423 31.3541 8.50623 31.3541 8.50623C31.2278 9.96223 32.3406 10.7122 32.6996 10.9162C31.5426 12.1682 29.9264 14.6702 29.5414 18.2202C29.1564 14.6702 27.5403 12.1682 26.3833 10.9162C26.7402 10.7122 27.8551 9.96223 27.7288 8.50623C27.7288 8.50623 27.0731 9.69423 24.0232 9.15223C21.5027 8.70223 20.1071 9.35823 20.1071 10.2002C20.1071 10.2002 18.3125 10.4142 17.5105 10.9322C16.7104 11.4502 17.5586 12.7442 17.5586 12.7442C17.6829 12.5062 17.8533 12.3662 18.3386 12.2602C18.3386 12.2602 20.2776 11.7622 20.9533 13.0222C22.4271 13.1482 23.7004 14.0282 24.2999 15.2262C24.332 15.2962 24.9276 16.4142 24.5446 18.6402C24.342 19.8122 23.7806 20.8102 22.9545 21.6582C22.5935 22.0302 22.1444 22.2682 21.599 22.2062C20.7368 22.1062 20.0209 21.6942 19.4053 21.0862C19.0685 20.7522 18.9642 20.3722 19.2229 19.9342C19.257 19.8762 19.277 19.8102 19.3011 19.7442C20.063 17.9042 19.4254 16.2762 18.1301 15.3122C17.1776 14.6062 16.0788 14.5222 14.9619 14.6802C7.59696 15.7162 7.34832 23.1462 7.34832 25.4382C7.34832 31.9202 7.25006 36.5202 7.20194 37.4062C7.12775 38.7502 6.65854 39.0302 6.35977 39.2442C6.83098 39.5682 10.6628 38.3662 11.5852 37.2222C11.6474 37.1462 11.7737 37.1122 11.87 37.0882C14.1538 36.5562 14.1578 34.1762 14.202 33.4542C16.1129 33.4542 16.8528 31.3722 17.0553 30.8302C17.2237 30.3642 17.3501 29.8202 17.4002 29.3262C17.4002 30.3402 18.902 31.2082 20.5182 29.5942C20.5182 31.2562 22.5013 30.9642 23.4879 29.9782C23.5741 30.3142 24.1215 31.1702 24.1215 31.1702C22.9886 31.3762 22.4793 31.6242 21.9419 32.0922C20.6886 33.1942 20.5463 35.0302 20.5463 35.9762C20.5463 35.9762 18.8178 37.6622 18.1341 38.2842C17.9316 38.4722 17.709 38.6362 17.4864 38.8042C15.7138 36.8262 15.1223 37.5962 15.1263 37.6022C13.815 37.0742 13.0891 38.0082 13.3758 38.4842C13.6806 38.1382 14.1779 38.2402 14.4767 38.5082C12.7061 38.8042 13.1172 40.1022 13.5964 40.3742C13.5964 40.0002 13.7107 39.5862 14.2701 39.5502C14.2421 40.1222 14.6291 40.2222 14.996 40.2362C15.8723 40.2742 17.338 40.3142 17.7872 40.7502C18.0418 40.9982 17.9175 41.7262 18.1942 41.9742C18.4228 42.1782 18.6654 42.1542 18.7918 42.1562C18.8339 42.4242 18.7557 42.7262 18.4148 43.0822C19.6901 43.1882 20.6445 42.0662 20.0129 41.4682C19.7482 41.2182 18.8559 40.3742 18.8118 40.0082C18.7537 39.6182 19.1667 39.1802 19.4535 38.9262C20.067 38.3822 20.7287 37.8922 21.3804 37.3862C21.5709 37.2362 21.7955 37.1022 22.0141 36.9822C22.1123 36.9282 22.2203 36.8942 22.3318 36.8822C22.4434 36.8701 22.5562 36.8804 22.6637 36.9122C23.153 37.0642 23.147 37.0522 23.2733 36.9682C23.7525 36.6522 24.6248 35.9382 26.4354 35.7402C26.3278 35.8048 26.2338 35.8897 26.1587 35.9902C26.0625 36.1242 25.9943 36.2862 25.892 36.5082C25.7737 36.7582 25.6835 37.0142 25.5772 37.2642C24.4062 40.0282 23.2472 42.7422 22.0802 45.5062C21.6932 46.4202 22.0381 47.2202 22.9825 47.6602C23.6703 47.9802 24.4543 47.8082 24.9155 47.1442C24.7832 47.6022 24.721 47.9942 24.9075 48.3742C25.0869 48.7457 25.3986 49.0373 25.7818 49.1922C26.1587 49.3582 26.6039 49.4162 27.0149 49.3342C27.434 49.2502 27.7127 48.9742 27.9273 48.5682C27.9634 49.4702 28.5589 50.1302 29.5414 50.1302Z" fill="#898989"/>
</g>
<mask id="mask2" mask-type="alpha" maskUnits="userSpaceOnUse" x="-28" y="-28" width="285" height="114">
<path d="M-27.355 -27.8219H256.844V85.5641H-27.355V-27.8219Z" fill="white"/>
</mask>
<g mask="url(#mask2)">
<path d="M77.5369 18.9722C79.103 18.9722 82.2992 18.8322 84.1259 18.7222C84.0787 19.0563 84.0506 19.3929 84.0417 19.7302C84.0417 19.9242 84.0998 20.3742 84.1259 20.6802C82.4134 20.4676 80.6917 20.3375 78.9666 20.2902C78.3791 20.2902 76.1013 20.3442 74.8681 20.4562V27.4862H76.2978C79.2213 27.4862 85.3691 28.0442 85.3691 33.1102C85.3691 37.2242 81.9142 39.1002 77.3705 39.0722C76.8612 39.0722 74.9563 38.9902 73.7412 38.9902C73.2138 38.9902 72.5682 39.0182 72.117 39.0722C72.2894 35.9902 72.3416 31.7362 72.3416 28.2082C72.3416 25.0462 72.3195 20.2582 72.117 18.7202C73.9136 18.8062 76.8853 18.9722 77.5369 18.9722ZM74.8681 37.4502C75.598 37.4782 76.4642 37.5062 77.2522 37.5062C80.5667 37.5062 82.4957 35.9642 82.4957 33.0802C82.4957 29.9742 80.1998 28.9642 74.8681 28.9642V37.4502Z" fill="#898989"/>
</g>
<mask id="mask3" mask-type="alpha" maskUnits="userSpaceOnUse" x="-28" y="-28" width="285" height="114">
<path d="M-27.355 -27.8219H256.844V85.5641H-27.355V-27.8219Z" fill="white"/>
</mask>
<g mask="url(#mask3)">
<path d="M88.5493 26.5581C89.6461 25.2181 91.6633 24.6321 93.3536 24.6321C96.3012 24.6321 98.3465 26.0821 98.3465 29.5821V36.5261C98.3465 37.9561 98.6533 38.2901 99.2408 38.2901C99.4433 38.2901 99.7501 38.2321 99.9165 38.1761L100.083 38.8501C99.4298 39.1805 98.7116 39.3628 97.9796 39.3841C97.0552 39.3841 96.4677 38.9641 96.2411 38.1501L96.0746 37.5381C94.5587 38.7401 92.9025 39.3841 91.5269 39.3841C88.9704 39.3841 87.3121 38.0381 87.3121 35.6861C87.3121 33.1661 89.1969 31.9881 91.7776 31.5161L94.637 30.9821C95.5954 30.8141 96.1047 30.5341 96.1047 29.8361C96.1047 26.7861 94.8114 26.0021 92.6779 26.0021C91.0237 26.0021 89.7845 26.4781 88.8882 28.3001H88.5493V26.5581ZM96.1047 31.8501L94.2479 32.1281C92.2267 32.4381 89.979 33.1361 89.979 35.2681C89.979 36.8901 90.8813 37.7581 92.702 37.7581C93.8269 37.7581 94.9498 37.3641 96.1047 36.1621V31.8501Z" fill="#898989"/>
</g>
<mask id="mask4" mask-type="alpha" maskUnits="userSpaceOnUse" x="-28" y="-28" width="285" height="114">
<path d="M-27.355 -27.8219H256.844V85.5641H-27.355V-27.8219Z" fill="white"/>
</mask>
<g mask="url(#mask4)">
<path fill-rule="evenodd" clip-rule="evenodd" d="M103.931 24.994C104.24 24.994 104.825 24.938 105.246 24.91C105.024 27.036 104.992 30.562 104.992 30.702C106.173 30.76 107.881 30.818 108.787 30.818C109.967 30.8107 111.145 30.772 112.322 30.702C112.322 30.536 112.292 27.01 112.072 24.91C112.541 24.938 113.163 24.994 113.498 24.994C113.81 24.994 114.398 24.938 114.819 24.91C114.592 27.01 114.564 30.534 114.564 31.99C114.564 33.166 114.592 36.946 114.819 39.0741C114.39 39.0197 113.958 38.9923 113.526 38.9921C113.05 38.9921 112.487 39.0201 112.07 39.0741C112.29 36.946 112.32 33.166 112.32 32.274C111.085 32.186 109.401 32.076 108.755 32.076C107.991 32.076 106.119 32.126 104.99 32.212C104.99 33.166 105.022 36.944 105.244 39.0741C104.817 39.0199 104.386 38.9925 103.955 38.9921C103.478 38.9921 102.916 39.0201 102.493 39.0741C102.716 36.946 102.744 33.166 102.744 31.99C102.744 30.562 102.716 27.01 102.493 24.91C102.97 24.936 103.592 24.994 103.931 24.994Z" fill="#898989"/>
</g>
<mask id="mask5" mask-type="alpha" maskUnits="userSpaceOnUse" x="-28" y="-28" width="285" height="114">
<path d="M-27.355 -27.8219H256.844V85.5641H-27.355V-27.8219Z" fill="white"/>
</mask>
<g mask="url(#mask5)">
<path fill-rule="evenodd" clip-rule="evenodd" d="M120.066 24.994C120.367 24.994 120.959 24.938 121.374 24.91C121.157 27.01 121.131 30.562 121.131 31.07H121.584C122.509 31.07 127.251 25.692 127.702 24.91C128.093 24.938 128.735 24.994 129.072 24.994C129.358 24.994 130.032 24.938 130.451 24.91L123.744 30.9C124.59 31.906 129.045 36.92 131.065 39.0741C130.506 39.0281 129.945 39.0007 129.384 38.9921C128.877 38.9921 128.119 39.0201 127.532 39.0741C126.493 37.4501 123.321 33.728 121.584 31.822H121.131C121.131 32.86 121.157 36.946 121.374 39.0741C120.948 39.0195 120.518 38.9921 120.088 38.9921C119.617 38.9921 119.056 39.0201 118.627 39.0741C118.857 36.946 118.889 33.166 118.889 31.99C118.889 30.562 118.857 27.01 118.627 24.91C119.11 24.936 119.73 24.994 120.066 24.994Z" fill="#898989"/>
</g>
<mask id="mask6" mask-type="alpha" maskUnits="userSpaceOnUse" x="-28" y="-28" width="285" height="114">
<path d="M-27.355 -27.8219H256.844V85.5641H-27.355V-27.8219Z" fill="white"/>
</mask>
<g mask="url(#mask6)">
<path d="M143.467 18.8062C144.443 18.8062 145.712 18.7222 146.436 18.7222C151.63 18.7222 153.655 20.2902 153.655 23.8142C153.655 28.3822 149.805 29.8342 145.239 29.8342C144.985 29.8342 143.914 29.7802 143.378 29.7222V34.5622C143.378 35.9622 143.435 37.6722 143.607 39.0722C142.617 38.9661 141.618 38.9661 140.627 39.0722C140.8 35.9922 140.856 31.7342 140.856 28.2082C140.856 25.0462 140.828 20.2582 140.627 18.7202C141.558 18.7462 142.821 18.8062 143.467 18.8062ZM144.559 28.3522C148.49 28.3522 150.791 26.7842 150.791 23.8142C150.791 21.0442 148.602 20.2902 145.879 20.2902C145.406 20.2902 143.773 20.3162 143.378 20.3742V28.2362C143.721 28.2982 144.279 28.3522 144.559 28.3522Z" fill="#898989"/>
</g>
<mask id="mask7" mask-type="alpha" maskUnits="userSpaceOnUse" x="-28" y="-28" width="285" height="114">
<path d="M-27.355 -27.8219H256.844V85.5641H-27.355V-27.8219Z" fill="white"/>
</mask>
<g mask="url(#mask7)">
<path d="M168.272 31.9061C168.272 36.1921 165.485 39.3821 161.086 39.3821C156.765 39.3821 154.066 36.2201 154.066 32.3001C154.066 27.6541 157.04 24.6321 161.337 24.6321C165.604 24.6321 168.272 27.7101 168.272 31.9061ZM156.735 32.2141C156.735 35.3781 158.054 38.2881 161.028 38.2881C163.891 38.2881 165.606 35.5441 165.606 31.7941C165.606 28.7701 164.425 25.7201 161.252 25.7201C158.221 25.7201 156.735 28.8841 156.735 32.2141Z" fill="#898989"/>
</g>
<mask id="mask8" mask-type="alpha" maskUnits="userSpaceOnUse" x="-28" y="-28" width="285" height="114">
<path d="M-27.355 -27.8219H256.844V85.5641H-27.355V-27.8219Z" fill="white"/>
</mask>
<g mask="url(#mask8)">
<path fill-rule="evenodd" clip-rule="evenodd" d="M182.028 27.9582H181.689C180.706 26.3642 179.333 25.7202 177.789 25.7202C174.502 25.7202 172.932 28.8842 172.932 31.9622C172.932 35.5162 174.893 38.2882 178.376 38.2882C179.531 38.2882 180.568 38.1222 182.194 36.3562L182.449 36.6642L182.11 38.0362C180.757 38.9342 179.249 39.3822 177.508 39.3822C173.127 39.3822 170.266 36.3302 170.266 32.0182C170.266 27.5122 173.354 24.6322 177.871 24.6322C179.568 24.6256 181.239 25.0488 182.728 25.8622L182.028 27.9582Z" fill="#898989"/>
</g>
<mask id="mask9" mask-type="alpha" maskUnits="userSpaceOnUse" x="-28" y="-28" width="285" height="114">
<path d="M-27.355 -27.8219H256.844V85.5641H-27.355V-27.8219Z" fill="white"/>
</mask>
<g mask="url(#mask9)">
<path fill-rule="evenodd" clip-rule="evenodd" d="M196.192 27.9581H195.859C194.881 26.3641 193.505 25.7201 191.963 25.7201C188.675 25.7201 187.103 28.8841 187.103 31.9621C187.103 35.5161 189.074 38.2881 192.551 38.2881C193.696 38.2881 194.739 38.1221 196.365 36.3561L196.613 36.6641L196.281 38.0361C194.935 38.9341 193.415 39.3821 191.679 39.3821C187.301 39.3821 184.44 36.3301 184.44 32.0181C184.44 27.5121 187.53 24.6321 192.048 24.6321C193.507 24.6321 195.106 24.9101 196.902 25.8621L196.192 27.9581Z" fill="#898989"/>
</g>
<mask id="mask10" mask-type="alpha" maskUnits="userSpaceOnUse" x="-28" y="-28" width="285" height="114">
<path d="M-27.355 -27.8219H256.844V85.5641H-27.355V-27.8219Z" fill="white"/>
</mask>
<g mask="url(#mask10)">
<path fill-rule="evenodd" clip-rule="evenodd" d="M200.355 38.9921C200.185 38.9921 199.679 39.0421 199.455 39.0741C199.679 36.946 199.709 33.166 199.709 31.99C199.709 30.562 199.679 27.01 199.455 24.91C199.934 24.938 200.547 24.994 200.884 24.994C201.193 24.994 201.781 24.938 202.206 24.91C201.981 27.01 201.957 30.534 201.957 31.99C201.957 33.166 201.981 34.816 202.007 35.602C203.553 33.728 209.055 26.758 210.377 24.91C210.676 24.964 210.874 24.994 211.213 24.994C211.379 24.994 211.967 24.938 212.282 24.91C212.055 27.01 212.023 30.534 212.023 31.99C212.023 33.166 212.055 36.946 212.282 39.0741C211.853 39.0201 211.422 38.9927 210.99 38.9921C210.511 38.9921 209.954 39.0201 209.527 39.0741C209.751 36.946 209.783 33.166 209.783 31.99C209.783 30.532 209.751 28.746 209.731 28.154C207.816 30.088 202.761 36.696 201.167 39.0741C200.9 39.0168 200.628 38.9893 200.355 38.9921Z" fill="#898989"/>
</g>
<mask id="mask11" mask-type="alpha" maskUnits="userSpaceOnUse" x="-28" y="-28" width="285" height="114">
<path d="M-27.355 -27.8219H256.844V85.5641H-27.355V-27.8219Z" fill="white"/>
</mask>
<g mask="url(#mask11)">
<path fill-rule="evenodd" clip-rule="evenodd" d="M216.248 38.9921C216.077 38.9921 215.572 39.0421 215.354 39.0741C215.572 36.946 215.602 33.166 215.602 31.99C215.602 30.562 215.572 27.01 215.354 24.91C215.827 24.938 216.44 24.994 216.777 24.994C217.086 24.994 217.678 24.938 218.099 24.91C217.874 27.01 217.85 30.534 217.85 31.99C217.85 33.166 217.874 34.816 217.9 35.602C219.446 33.728 224.942 26.758 226.262 24.91C226.57 24.964 226.769 24.994 227.106 24.994C227.272 24.994 227.866 24.938 228.171 24.91C227.954 27.01 227.922 30.534 227.922 31.99C227.922 33.166 227.954 36.946 228.171 39.0741C227.742 39.0199 227.311 38.9925 226.879 38.9921C226.404 38.9921 225.839 39.0201 225.423 39.0741C225.648 36.946 225.672 33.166 225.672 31.99C225.672 30.532 225.648 28.746 225.622 28.154C223.713 30.088 218.652 36.696 217.054 39.0741C216.789 39.0163 216.519 38.9888 216.248 38.9921Z" fill="#898989"/>
</g>
</svg>
