<svg width="210" height="37" viewBox="0 0 210 37" fill="none" xmlns="http://www.w3.org/2000/svg">
<path d="M21.0526 0.0686456V19.1521C21.0526 20.0445 20.3651 20.6623 19.5401 20.6623H17.2713C17.1338 20.6623 17.0651 20.7996 17.0651 20.8683V36.8627C17.6151 36.8627 18.1651 37 18.7838 37C29.0276 37 37.3463 28.6939 37.3463 18.4657C37.3463 9.06122 30.2651 1.16698 21.0526 0.0686456ZM20.6401 28.6252C19.3338 28.6252 18.3713 27.5269 18.3713 26.3599C18.3713 25.0557 19.4713 24.0946 20.6401 24.0946C21.9463 24.0946 22.9088 25.1929 22.9088 26.3599C23.0463 27.5955 21.9463 28.6252 20.6401 28.6252ZM26.0713 28.6252C24.7651 28.6252 23.8026 27.5269 23.8026 26.3599C23.8026 25.0557 24.9026 24.0946 26.0713 24.0946C27.3776 24.0946 28.3401 25.1929 28.3401 26.3599C28.3401 27.5269 27.4463 28.6252 26.0713 28.6252ZM31.5713 28.6252C30.2651 28.6252 29.3026 27.5269 29.3026 26.3599C29.3026 25.0557 30.4026 24.0946 31.5713 24.0946C32.8776 24.0946 33.8401 25.1929 33.8401 26.3599C33.8401 27.5269 32.8776 28.6252 31.5713 28.6252Z" fill="#00B956"/>
<path d="M18.7838 0C8.54006 0 0.221313 8.30612 0.221313 18.5343C0.221313 27.5269 6.47756 34.872 14.8651 36.5881V19.9072C14.8651 19.1521 15.5526 18.5343 16.2401 18.397H18.5088C18.6463 18.397 18.7151 18.2597 18.7151 18.1911L18.7838 0ZM15.2088 15.2393C13.9026 15.2393 12.9401 14.141 12.9401 12.974C12.9401 11.6698 14.0401 10.7087 15.2088 10.7087C16.5151 10.7087 17.4776 11.8071 17.4776 12.974C17.4776 14.141 16.4463 15.2393 15.2088 15.2393Z" fill="#00B956"/>
<path d="M204.615 10.0909V17.0928H195.265V10.0909H190.521V28.6252H195.265V21.1429H204.615V28.6252H209.221V10.0909H204.615ZM127.34 12.2189C126.584 10.5714 125.071 9.67904 123.559 9.67904C122.046 9.67904 120.465 10.5714 119.778 12.2189L112.284 28.6939H117.234L118.884 24.7811H128.509L130.159 28.6939H135.109L127.34 12.2189ZM120.19 21.0742L123.009 14.2783C123.146 14.0724 123.215 14.0724 123.353 14.0724C123.49 14.0724 123.696 14.0724 123.696 14.2783L126.515 21.0742H120.19ZM72.0651 6.79592C69.8651 6.79592 68.4901 7.96289 67.4588 10.2968L61.4776 24.2319L55.4276 10.2282C54.4651 7.96289 53.0213 6.72727 50.8213 6.72727C48.7588 6.72727 46.6963 8.10019 46.6963 11.3265V28.5566H51.3026V11.9443L57.4213 25.7421C58.1776 27.7328 59.6213 28.8998 61.4776 28.8998C63.4713 28.8998 64.7776 27.7328 65.5338 25.7421L71.6526 11.9443V28.7625H76.2588V11.5325C76.1901 8.30612 74.1276 6.79592 72.0651 6.79592ZM84.3713 24.7124C84.1651 24.7124 83.8901 24.5065 83.8901 24.2319V20.9369H95.4401V17.1614H83.8901V14.3469C83.8901 14.141 84.0963 13.8664 84.3713 13.8664H95.8526V9.95362H82.1026C80.4526 9.95362 79.3526 11.2579 79.3526 12.6994V25.6735C79.3526 27.0464 80.5213 28.4193 82.1026 28.4193H95.8526V24.5065H84.3713V24.7124ZM103.621 28.6252V14.4842C103.621 14.2783 103.828 14.0037 104.103 14.0037H115.584V10.0909H101.834C100.184 10.0909 99.0838 11.3952 99.0838 12.8367V28.5566L103.621 28.6252ZM187.496 19.4267C187.496 12.974 184.678 9.95362 177.665 9.95362H176.015C169.003 9.95362 166.184 13.0427 166.184 19.4267C166.184 25.7421 169.003 28.8998 176.015 28.8998H177.528C184.678 28.7625 187.496 25.7421 187.496 19.4267ZM177.528 24.987H176.015C172.234 24.987 170.653 23.2709 170.653 19.4267C170.653 15.7199 171.959 13.8664 176.015 13.8664H177.528C181.446 13.8664 182.89 15.7199 182.89 19.4267C182.89 23.2022 181.446 24.987 177.528 24.987ZM153.328 7.20779H144.115C137.24 7.20779 134.49 10.7087 134.49 16.6809C134.49 17.6419 134.628 18.5343 134.696 19.2894C135.453 23.5455 137.996 26.154 144.39 26.154H146.453V28.5566H151.059V26.154H153.053C159.515 26.154 162.059 23.5455 162.746 19.2894C162.884 18.5343 162.953 17.6419 162.953 16.6809C162.884 10.7087 160.065 7.20779 153.328 7.20779ZM144.253 22.3098C141.09 22.3098 139.99 21.1429 139.303 19.2208C139.096 18.5343 139.096 17.5733 139.096 16.6122C139.096 12.6994 140.953 11.0519 143.565 11.0519H146.384V22.3098H144.253ZM158.14 19.4267C157.453 21.2801 156.284 22.5158 153.19 22.5158H151.128V11.1892H153.946C156.559 11.1892 158.415 12.8367 158.415 16.7495C158.346 17.7792 158.346 18.603 158.14 19.4267Z" fill="#00B956"/>
</svg>
