<svg width="120" height="120" viewBox="0 0 120 120" fill="none" xmlns="http://www.w3.org/2000/svg">
<path d="M97.0423 102.632C93.9357 99.5251 88.8802 99.5251 85.7731 102.632C83.7722 104.633 83.0621 107.442 83.6384 110.018C76.2315 113.529 68.2861 115.313 60 115.313C29.5006 115.313 4.6875 90.4995 4.6875 60C4.6875 45.6223 10.1768 32.0013 20.1445 21.6457C21.0422 20.7131 21.0138 19.2293 20.0813 18.3316C19.1487 17.434 17.6646 17.4623 16.7672 18.3951C5.95477 29.6285 0 44.404 0 60C0 76.0266 6.24118 91.0939 17.5737 102.427C28.9062 113.759 43.9735 120 60 120C69.1107 120 77.8435 118.01 85.9756 114.094C87.5016 115.518 89.4542 116.232 91.4077 116.232C93.4484 116.232 95.4889 115.455 97.0423 113.902C100.149 110.795 100.149 105.739 97.0423 102.632ZM93.728 110.587C92.4488 111.866 90.3669 111.866 89.0876 110.587C87.8082 109.308 87.8082 107.226 89.0876 105.946C89.7272 105.307 90.5675 104.987 91.4079 104.987C92.2479 104.987 93.0884 105.307 93.728 105.946C95.0072 107.226 95.0072 109.308 93.728 110.587Z"/>
<path d="M115.657 82.4454C118.537 75.3174 120 67.7766 120 60C120 46.7719 115.59 33.8569 107.551 23.4124C109.444 20.3416 109.063 16.2555 106.404 13.5958C103.297 10.4892 98.2415 10.4887 95.1344 13.5958C92.0275 16.7029 92.0275 21.7584 95.1344 24.8655C96.6879 26.419 98.7286 27.1954 100.769 27.1954C101.878 27.1954 102.986 26.9641 104.017 26.5054C111.314 36.0919 115.312 47.9034 115.312 60C115.312 67.0502 114.008 73.8874 111.442 80.3581C109.001 79.9662 106.412 80.707 104.534 82.5846C101.427 85.6917 101.427 90.7472 104.534 93.8543C106.087 95.4078 108.128 96.1842 110.168 96.1842C112.209 96.1842 114.25 95.4078 115.803 93.8543C118.91 90.7472 118.91 85.6917 115.803 82.5846C115.755 82.5368 115.706 82.4918 115.657 82.4454ZM103.089 21.551C103.079 21.5613 103.068 21.5697 103.057 21.5801L103.055 21.5819C103.034 21.5988 103.017 21.6173 102.997 21.6347C101.712 22.8262 99.6986 22.8009 98.449 21.551C97.1697 20.2718 97.1697 18.1898 98.449 16.9106C99.0888 16.271 99.9288 15.9511 100.769 15.9511C101.609 15.9511 102.45 16.2708 103.089 16.9106C104.369 18.1898 104.369 20.2718 103.089 21.551ZM112.489 90.5398C111.21 91.819 109.128 91.8195 107.849 90.5398C106.569 89.2606 106.569 87.1786 107.849 85.8994C108.488 85.2598 109.328 84.9399 110.169 84.9399C110.653 84.9399 111.136 85.0498 111.581 85.2621C111.652 85.3038 111.725 85.3425 111.801 85.3772C112.047 85.5181 112.279 85.6899 112.489 85.8994C113.768 87.1786 113.768 89.2606 112.489 90.5398Z"/>
<path d="M84.875 2.33391C81.9903 -0.550782 77.4263 -0.755157 74.3014 1.71703C69.6441 0.578438 64.8366 0 60.0001 0C50.4005 0 41.2283 2.19961 32.7378 6.53766C31.5851 7.12664 31.1281 8.53852 31.7171 9.69118C32.1315 10.5023 32.9534 10.969 33.8061 10.969C34.1649 10.969 34.5291 10.8863 34.8706 10.7119C42.6945 6.71438 51.1491 4.6875 60.0001 4.6875C63.8963 4.6875 67.771 5.09461 71.5496 5.89641C70.8373 8.55821 71.521 11.5191 73.6055 13.6036C75.159 15.157 77.1994 15.9335 79.2404 15.9335C81.2811 15.9335 83.3216 15.157 84.875 13.6036C87.9819 10.4965 87.9819 5.44102 84.875 2.33391ZM81.5602 10.2891C80.281 11.5683 78.1991 11.5683 76.9198 10.2891C75.6404 9.00985 75.6404 6.92789 76.9198 5.64867C77.5597 5.00883 78.3999 4.68914 79.2402 4.68914C80.0802 4.68914 80.9206 5.00883 81.5602 5.64867C82.8394 6.92789 82.8394 9.00985 81.5602 10.2891Z"/>
<path d="M27.5408 12.3197C26.7814 11.2714 25.3164 11.037 24.2678 11.7961C24.2624 11.8004 24.2483 11.8104 24.2401 11.8165C23.1983 12.5773 22.967 14.0382 23.7242 15.0837C24.1827 15.717 24.8982 16.0531 25.6246 16.0531C26.101 16.0531 26.5818 15.9082 26.9973 15.6075C27.0043 15.6024 27.0102 15.5982 27.0172 15.5928C28.0656 14.8336 28.3 13.3683 27.5408 12.3197Z"/>
<path d="M79.6875 37.9688H40.3125C39.0181 37.9688 37.9688 39.0183 37.9688 40.3125V79.6875C37.9688 80.9818 39.0181 82.0313 40.3125 82.0313H79.6875C80.982 82.0313 82.0313 80.9818 82.0313 79.6875V40.3125C82.0313 39.0183 80.982 37.9688 79.6875 37.9688ZM77.3438 77.3438H42.6563V42.6563H77.3438V77.3438Z"/>
<path d="M98.2032 56.7188C99.4976 56.7188 100.547 55.6693 100.547 54.375C100.547 53.0808 99.4976 52.0313 98.2032 52.0313H91.4063V45.4688H98.2032C99.4976 45.4688 100.547 44.4192 100.547 43.125C100.547 41.8308 99.4976 40.7813 98.2032 40.7813H91.4063V30.9375C91.4063 29.6433 90.357 28.5938 89.0626 28.5938H79.2188V21.7969C79.2188 20.5027 78.1695 19.4531 76.875 19.4531C75.5806 19.4531 74.5313 20.5027 74.5313 21.7969V28.5938H67.9688V21.7969C67.9688 20.5027 66.9195 19.4531 65.625 19.4531C64.3306 19.4531 63.2813 20.5027 63.2813 21.7969V28.5938H56.7188V21.7969C56.7188 20.5027 55.6695 19.4531 54.375 19.4531C53.0806 19.4531 52.0313 20.5027 52.0313 21.7969V28.5938H45.4688V21.7969C45.4688 20.5027 44.4195 19.4531 43.125 19.4531C41.8306 19.4531 40.7813 20.5027 40.7813 21.7969V28.5938H30.9375C29.6431 28.5938 28.5938 29.6433 28.5938 30.9375V40.7813H21.7969C20.5024 40.7813 19.4531 41.8308 19.4531 43.125C19.4531 44.4192 20.5024 45.4688 21.7969 45.4688H28.5938V52.0313H21.7969C20.5024 52.0313 19.4531 53.0808 19.4531 54.375C19.4531 55.6693 20.5024 56.7188 21.7969 56.7188H28.5938V63.2813H21.7969C20.5024 63.2813 19.4531 64.3308 19.4531 65.625C19.4531 66.9193 20.5024 67.9688 21.7969 67.9688H28.5938V74.5313H21.7969C20.5024 74.5313 19.4531 75.5808 19.4531 76.875C19.4531 78.1693 20.5024 79.2188 21.7969 79.2188H28.5938V89.0626C28.5938 90.3568 29.6431 91.4063 30.9375 91.4063H40.7813V98.2032C40.7813 99.4974 41.8306 100.547 43.125 100.547C44.4195 100.547 45.4688 99.4974 45.4688 98.2032V91.4063H52.0313V98.2032C52.0313 99.4974 53.0806 100.547 54.375 100.547C55.6695 100.547 56.7188 99.4974 56.7188 98.2032V91.4063H63.2813V98.2032C63.2813 99.4974 64.3306 100.547 65.625 100.547C66.9195 100.547 67.9688 99.4974 67.9688 98.2032V91.4063H74.5313V98.2032C74.5313 99.4974 75.5806 100.547 76.875 100.547C78.1695 100.547 79.2188 99.4974 79.2188 98.2032V91.4063H89.0626C90.357 91.4063 91.4063 90.3568 91.4063 89.0626V79.2188H98.2032C99.4976 79.2188 100.547 78.1693 100.547 76.875C100.547 75.5808 99.4976 74.5313 98.2032 74.5313H91.4063V67.9688H98.2032C99.4976 67.9688 100.547 66.9193 100.547 65.625C100.547 64.3308 99.4976 63.2813 98.2032 63.2813H91.4063V56.7188H98.2032ZM86.7188 86.7188H33.2813V33.2813H86.7188V86.7188Z"/>
<path d="M69.3751 48.2813H59.7201C58.4256 48.2813 57.3763 49.3308 57.3763 50.625C57.3763 51.9193 58.4256 52.9688 59.7201 52.9688H69.3751C70.6696 52.9688 71.7189 51.9193 71.7189 50.625C71.7189 49.3308 70.6696 48.2813 69.3751 48.2813Z"/>
<path d="M51.0328 48.968C50.5968 48.5321 49.9921 48.2813 49.3757 48.2813C48.757 48.2813 48.1546 48.5318 47.7187 48.968C47.2804 49.4039 47.032 50.0086 47.032 50.625C47.032 51.2414 47.2804 51.8461 47.7187 52.2818C48.1546 52.718 48.7593 52.9688 49.3757 52.9688C49.9921 52.9688 50.5968 52.718 51.0328 52.2818C51.4687 51.8461 51.7195 51.2414 51.7195 50.625C51.7195 50.0086 51.4687 49.4039 51.0328 48.968Z"/>
<path d="M69.375 57.6563H49.3751C48.0807 57.6563 47.0314 58.7058 47.0314 60C47.0314 61.2943 48.0807 62.3438 49.3751 62.3438H69.375C70.6695 62.3438 71.7188 61.2943 71.7188 60C71.7188 58.7058 70.6695 57.6563 69.375 57.6563Z"/>
<path d="M51.0328 67.718C50.5968 67.2821 49.9921 67.0313 49.3757 67.0313C48.7593 67.0313 48.1546 67.2818 47.7164 67.718C47.2804 68.1539 47.032 68.7586 47.032 69.375C47.032 69.9914 47.2804 70.5961 47.7164 71.0318C48.1546 71.4678 48.7593 71.7188 49.3757 71.7188C49.9921 71.7188 50.5968 71.468 51.0328 71.0318C51.4687 70.5961 51.7195 69.9914 51.7195 69.375C51.7195 68.7586 51.4687 68.1539 51.0328 67.718Z"/>
<path d="M60.6868 67.718C60.2508 67.2818 59.6461 67.0313 59.0297 67.0313C58.4133 67.0313 57.8087 67.2818 57.3727 67.718C56.9368 68.1539 56.686 68.7586 56.686 69.375C56.686 69.9914 56.9368 70.5961 57.3727 71.0318C57.8087 71.4678 58.4133 71.7188 59.0297 71.7188C59.6485 71.7188 60.2508 71.468 60.6868 71.0318C61.1227 70.5961 61.3735 69.9914 61.3735 69.375C61.3735 68.7561 61.1227 68.1539 60.6868 67.718Z"/>
<path d="M71.0321 67.718C70.5961 67.2821 69.9914 67.0313 69.375 67.0313C68.7586 67.0313 68.1539 67.2818 67.718 67.718C67.2821 68.1539 67.0313 68.7563 67.0313 69.375C67.0313 69.9914 67.2821 70.5961 67.718 71.0318C68.1539 71.4678 68.7586 71.7188 69.375 71.7188C69.9914 71.7188 70.5961 71.468 71.0321 71.0318C71.468 70.5961 71.7188 69.9914 71.7188 69.375C71.7188 68.7561 71.468 68.1539 71.0321 67.718Z"/>
</svg>
