<svg width="48" height="48" viewBox="0 0 48 48" fill="none" xmlns="http://www.w3.org/2000/svg">
<path d="M27.2 23.4398V30C27.2 36 30.4 41.5199 35.5199 44.4801L37.6 45.6801L39.6801 44.4801C44.8 41.5199 48 36 48 30V23.4398L37.6 20L27.2 23.4398ZM46.4 30C46.4 35.4398 43.5199 40.4 38.8801 43.1199L37.6 43.8398L36.3199 43.1199C31.6801 40.4 28.8 35.3601 28.8 30V24.5601L37.6 21.6L46.4 24.5601V30Z" fill="#D70E45"/>
<path d="M37.2 42.3199C42.2398 39.4398 44.8 34.8 44.8 28.6398V27.2H43.2V28.5601C43.2 34.1601 40.8801 38.2398 36.4 40.8801L37.2 42.3199Z" fill="#D70E45"/>
<path d="M44 6.39999H26.4V4.79999C26.4 3.43984 25.3602 2.39999 24 2.39999H6.4C5.03984 2.39999 4 3.43984 4 4.79999V7.99999H5.6V4.79999C5.6 4.31992 5.91992 3.99999 6.4 3.99999H24C24.4801 3.99999 24.8 4.31992 24.8 4.79999V7.99999H44C45.3602 7.99999 46.4 9.03984 46.4 10.4V20.8H48V10.4C48 8.16015 46.2398 6.39999 44 6.39999Z" fill="#D70E45"/>
<path d="M4 40.8H28V39.2H4C2.63984 39.2 1.6 38.1602 1.6 36.8V14.4C1.6 13.0398 2.63984 12 4 12H37.6C38.9602 12 40 13.0398 40 14.4V19.2H41.6V14.4C41.6 12.1602 39.8398 10.4 37.6 10.4H4C1.76016 10.4 0 12.1602 0 14.4V36.8C0 39.0398 1.76016 40.8 4 40.8Z" fill="#D70E45"/>
<path d="M43.2 12H44.8V20H43.2V12Z" fill="#D70E45"/>
<path d="M17.6 25.6C17.6 27.3602 19.0398 28.8 20.8 28.8C22.5602 28.8 24 27.3602 24 25.6C24 23.8398 22.5602 22.4 20.8 22.4C19.0398 22.4 17.6 23.8398 17.6 25.6ZM22.4 25.6C22.4 26.4801 21.6801 27.2 20.8 27.2C19.9199 27.2 19.2 26.4801 19.2 25.6C19.2 24.7199 19.9199 24 20.8 24C21.6801 24 22.4 24.7199 22.4 25.6Z" fill="#D70E45"/>
<path d="M26.6398 20.0801C19.6 17.9199 11.9199 19.8398 6.71992 25.0398L6.08008 25.6L6.63985 26.1602C10.4 29.9199 15.4398 32 20.8 32C22.1602 32 23.6 31.8399 24.9602 31.6L24.6398 30C18.8 31.2801 12.8 29.6 8.4 25.6C13.2 21.2 19.9199 19.6801 26.1602 21.6L26.6398 20.0801Z" fill="#D70E45"/>
</svg>
