<svg width="64" height="44" viewBox="0 0 64 44" fill="none" xmlns="http://www.w3.org/2000/svg">
<path d="M31.9155 0C17.9038 0 5.05977 1.55685 5.05977 1.55685C5.05977 1.55685 4.75114e-05 1.94606 0 22.1851C-4.75107e-05 42.4242 5.05977 42.4242 5.05977 42.4242C5.05977 42.4242 20.6283 43.9811 31.9155 43.9811C43.2027 43.9811 59.1604 42.4242 59.1604 42.4242C59.1604 42.4242 63.831 42.4242 63.831 22.1851C63.831 1.94606 59.1604 1.55685 59.1604 1.55685C59.1604 1.55685 45.9271 0 31.9155 0Z" fill="#D70E45"/>
<path d="M42.0351 21.4067L25.6881 12.4548V31.1371L42.0351 21.4067Z" fill="white"/>
</svg>
