<svg width="43" height="53" viewBox="0 0 43 53" fill="none" xmlns="http://www.w3.org/2000/svg">
<path d="M1 26.9474C1 43.0526 14.6667 50.3597 21.5 52C28.3333 50.3597 42 43.0528 42 26.9475V9.50019L21.5 1L1 9.50008V26.9474Z" stroke="#D70E45" stroke-width="2" stroke-linecap="round" stroke-linejoin="round"/>
<rect x="12" y="22" width="20" height="15" rx="4" stroke="#D70E45" stroke-width="2" stroke-linecap="round" stroke-linejoin="round"/>
<path d="M17 22H27V18C27 15.2386 24.7614 13 22 13C19.2386 13 17 15.2386 17 18V22Z" stroke="#D70E45" stroke-width="2"/>
<circle cx="22" cy="28" r="2" stroke="#D70E45" stroke-width="2" stroke-linecap="round" stroke-linejoin="round"/>
<line x1="22" y1="31" x2="22" y2="33" stroke="#D70E45" stroke-width="2" stroke-linecap="round" stroke-linejoin="round"/>
</svg>
